<?xml version="1.0" encoding="utf-8"?>
<!-- Generator: Adobe Illustrator 22.1.0, SVG Export Plug-In . SVG Version: 6.00 Build 0)  -->
<svg version="1.1" id="Camada_1" xmlns="http://www.w3.org/2000/svg" xmlns:xlink="http://www.w3.org/1999/xlink" x="0px" y="0px"
	 viewBox="0 0 87.2 56" style="enable-background:new 0 0 87.2 56;" xml:space="preserve">
<style type="text/css">
	.st0{fill:#FFFFFF;}
</style>
<g>
	<path class="st0" d="M46.1,12.7h8.3c0.4,0,0.8-0.2,1.1-0.4c0.3-0.3,0.4-0.7,0.4-1.1V2.9c0-0.4-0.2-0.8-0.4-1.1
		c-0.3-0.3-0.7-0.4-1.1-0.4h-8.3c-0.4,0-0.8,0.2-1.1,0.4c-0.3,0.3-0.4,0.7-0.4,1.1v8.3c0,0.4,0.2,0.8,0.4,1.1
		C45.3,12.5,45.7,12.7,46.1,12.7 M54.3,13.8h-8.3c-0.7,0-1.4-0.3-1.9-0.8c-0.5-0.5-0.8-1.1-0.8-1.9V2.9c0-0.7,0.3-1.4,0.8-1.9
		c0.5-0.5,1.1-0.8,1.9-0.8h8.3c0.7,0,1.4,0.3,1.9,0.8C56.7,1.5,57,2.1,57,2.9v8.3c0,0.7-0.3,1.4-0.8,1.9
		C55.7,13.5,55.1,13.8,54.3,13.8z"/>
	<path class="st0" d="M46.1,21.5h3.8c0.1,0,0.3-0.1,0.4-0.2c0.1-0.1,0.2-0.2,0.2-0.4v-3.8c0-0.1-0.1-0.3-0.2-0.4
		c-0.1-0.1-0.2-0.2-0.4-0.2h-3.8c-0.1,0-0.3,0.1-0.4,0.2c-0.1,0.1-0.2,0.2-0.2,0.4v3.8c0,0.2,0.1,0.3,0.2,0.4
		C45.8,21.4,45.9,21.5,46.1,21.5 M49.9,22.2h-3.8c-0.4,0-0.7-0.1-0.9-0.4l0,0c-0.2-0.2-0.4-0.6-0.4-0.9v-3.8c0-0.4,0.2-0.7,0.4-0.9
		l0,0c0.2-0.2,0.6-0.4,0.9-0.4h3.8c0.4,0,0.7,0.1,0.9,0.4l0,0c0.2,0.2,0.4,0.6,0.4,0.9v3.8c0,0.4-0.1,0.7-0.4,0.9l0,0
		C50.6,22.1,50.3,22.2,49.9,22.2z"/>
	<polygon class="st0" points="51.2,50.3 51.2,49.8 53.8,49.8 53.8,50.3 52.7,50.3 52.7,54.5 52.3,54.5 52.3,50.3 	"/>
	<path class="st0" d="M57.2,53.3l0.4,0.2c-0.1,0.2-0.3,0.4-0.4,0.6c-0.2,0.1-0.3,0.3-0.5,0.3c-0.2,0.1-0.4,0.1-0.7,0.1
		c-0.6,0-1-0.2-1.3-0.6c-0.3-0.4-0.5-0.8-0.5-1.2c0-0.4,0.1-0.8,0.4-1.2c0.3-0.4,0.8-0.6,1.3-0.6c0.6,0,1.1,0.2,1.4,0.7
		c0.2,0.3,0.4,0.7,0.4,1.2h-3.1c0,0.4,0.1,0.7,0.4,1c0.2,0.3,0.6,0.4,0.9,0.4c0.2,0,0.3,0,0.5-0.1c0.2-0.1,0.3-0.1,0.4-0.2
		C57,53.7,57.1,53.6,57.2,53.3 M57.2,52.4c-0.1-0.2-0.1-0.4-0.3-0.6c-0.1-0.1-0.3-0.3-0.4-0.3c-0.2-0.1-0.4-0.1-0.6-0.1
		c-0.3,0-0.6,0.1-0.9,0.3c-0.2,0.2-0.3,0.4-0.4,0.7H57.2z"/>
	<path class="st0" d="M61.8,51.8L61.5,52c-0.3-0.4-0.7-0.6-1.2-0.6c-0.4,0-0.8,0.1-1,0.4c-0.3,0.3-0.4,0.6-0.4,1
		c0,0.2,0.1,0.5,0.2,0.7c0.1,0.2,0.3,0.4,0.5,0.5c0.2,0.1,0.5,0.2,0.7,0.2c0.5,0,0.9-0.2,1.2-0.6l0.3,0.2c-0.2,0.2-0.4,0.4-0.7,0.6
		c-0.3,0.1-0.6,0.2-0.9,0.2c-0.5,0-1-0.2-1.3-0.5s-0.5-0.8-0.5-1.3c0-0.3,0.1-0.6,0.2-0.9c0.2-0.3,0.4-0.5,0.7-0.7
		c0.3-0.2,0.6-0.2,1-0.2c0.2,0,0.4,0,0.7,0.1s0.4,0.2,0.5,0.3C61.6,51.5,61.7,51.6,61.8,51.8"/>
	<path class="st0" d="M62.7,51.1h0.4v0.6c0.2-0.2,0.4-0.4,0.6-0.5c0.2-0.1,0.4-0.2,0.7-0.2c0.3,0,0.5,0.1,0.7,0.2
		c0.2,0.1,0.3,0.3,0.4,0.5c0.1,0.2,0.1,0.6,0.1,1v1.8h-0.4v-1.6c0-0.4,0-0.7-0.1-0.8c-0.1-0.2-0.1-0.4-0.3-0.5
		c-0.1-0.1-0.3-0.2-0.6-0.2c-0.3,0-0.5,0.1-0.7,0.3c-0.2,0.2-0.3,0.4-0.4,0.7c0,0.2-0.1,0.5-0.1,0.9v1.2h-0.4L62.7,51.1L62.7,51.1z"
		/>
	<path class="st0" d="M68.2,51c0.5,0,1,0.2,1.3,0.6c0.3,0.3,0.5,0.8,0.5,1.2c0,0.5-0.2,0.9-0.5,1.3c-0.3,0.4-0.8,0.5-1.3,0.5
		S67.3,54.4,67,54c-0.3-0.4-0.5-0.8-0.5-1.3c0-0.5,0.2-0.9,0.5-1.2C67.3,51.2,67.7,51,68.2,51 M68.2,51.4c-0.4,0-0.7,0.1-0.9,0.4
		c-0.3,0.3-0.4,0.6-0.4,1c0,0.2,0.1,0.5,0.2,0.7s0.3,0.4,0.5,0.5c0.2,0.1,0.4,0.2,0.7,0.2s0.5-0.1,0.7-0.2c0.2-0.1,0.4-0.3,0.5-0.5
		c0.1-0.2,0.2-0.4,0.2-0.7c0-0.4-0.1-0.7-0.4-1C68.9,51.5,68.6,51.4,68.2,51.4z"/>
	<rect x="70.8" y="49.7" class="st0" width="0.4" height="4.7"/>
	<path class="st0" d="M73.7,51c0.5,0,1,0.2,1.3,0.6c0.3,0.3,0.5,0.8,0.5,1.2c0,0.5-0.2,0.9-0.5,1.3c-0.3,0.4-0.8,0.5-1.3,0.5
		s-0.9-0.2-1.3-0.5c-0.3-0.4-0.5-0.8-0.5-1.3c0-0.5,0.2-0.9,0.5-1.2C72.8,51.2,73.2,51,73.7,51 M73.7,51.4c-0.4,0-0.7,0.1-0.9,0.4
		c-0.3,0.3-0.4,0.6-0.4,1c0,0.2,0.1,0.5,0.2,0.7s0.3,0.4,0.5,0.5c0.2,0.1,0.4,0.2,0.7,0.2s0.5-0.1,0.7-0.2c0.2-0.1,0.4-0.3,0.5-0.5
		c0.1-0.2,0.2-0.4,0.2-0.7c0-0.4-0.1-0.7-0.4-1C74.4,51.5,74.1,51.4,73.7,51.4z"/>
	<path class="st0" d="M79.3,51.1h0.4v2.7c0,0.5,0,0.8-0.1,1.1c-0.1,0.3-0.3,0.6-0.6,0.7c-0.3,0.2-0.6,0.3-1,0.3
		c-0.3,0-0.6,0-0.8-0.1c-0.2-0.1-0.4-0.2-0.6-0.3c-0.2-0.1-0.3-0.3-0.4-0.6h0.5c0.1,0.2,0.3,0.4,0.5,0.5c0.2,0.1,0.5,0.2,0.8,0.2
		c0.3,0,0.6-0.1,0.8-0.2c0.2-0.1,0.4-0.3,0.4-0.4c0.1-0.2,0.1-0.4,0.1-0.8v-0.2c-0.2,0.2-0.4,0.4-0.6,0.5c-0.2,0.1-0.5,0.2-0.8,0.2
		c-0.3,0-0.6-0.1-0.9-0.2s-0.5-0.4-0.6-0.6c-0.2-0.3-0.2-0.6-0.2-0.9c0-0.3,0.1-0.6,0.2-0.9c0.2-0.3,0.4-0.5,0.7-0.6
		c0.3-0.2,0.6-0.2,0.9-0.2c0.3,0,0.5,0.1,0.7,0.2c0.2,0.1,0.4,0.3,0.6,0.5L79.3,51.1L79.3,51.1z M78,51.4c-0.2,0-0.5,0.1-0.7,0.2
		c-0.2,0.1-0.4,0.3-0.5,0.5c-0.1,0.2-0.2,0.4-0.2,0.7c0,0.4,0.1,0.7,0.4,0.9c0.3,0.2,0.6,0.4,1,0.4c0.4,0,0.7-0.1,1-0.4
		c0.2-0.2,0.4-0.6,0.4-1c0-0.3-0.1-0.5-0.2-0.7c-0.1-0.2-0.3-0.4-0.5-0.5C78.4,51.4,78.2,51.4,78,51.4z"/>
	<path class="st0" d="M80.8,49.6c0.1,0,0.2,0,0.3,0.1c0.1,0.1,0.1,0.2,0.1,0.3c0,0.1,0,0.2-0.1,0.3c-0.1,0.1-0.2,0.1-0.3,0.1
		s-0.2,0-0.3-0.1c-0.1-0.1-0.1-0.2-0.1-0.3c0-0.1,0-0.2,0.1-0.3C80.6,49.7,80.7,49.6,80.8,49.6 M80.6,51.1H81v3.4h-0.4V51.1z"/>
	<path class="st0" d="M85.3,51.1v3.4h-0.4v-0.6c-0.2,0.2-0.4,0.4-0.6,0.5c-0.2,0.1-0.5,0.2-0.8,0.2c-0.5,0-0.9-0.2-1.2-0.5
		c-0.3-0.3-0.5-0.8-0.5-1.3c0-0.5,0.2-0.9,0.5-1.3c0.3-0.3,0.8-0.5,1.2-0.5c0.3,0,0.5,0.1,0.8,0.2c0.2,0.1,0.4,0.3,0.6,0.5V51
		L85.3,51.1L85.3,51.1z M83.6,51.4c-0.2,0-0.5,0.1-0.7,0.2c-0.2,0.1-0.4,0.3-0.5,0.5c-0.1,0.2-0.2,0.4-0.2,0.7
		c0,0.2,0.1,0.5,0.2,0.7c0.1,0.2,0.3,0.4,0.5,0.5c0.2,0.1,0.4,0.2,0.7,0.2c0.2,0,0.5-0.1,0.7-0.2c0.2-0.1,0.4-0.3,0.5-0.5
		c0.1-0.2,0.2-0.4,0.2-0.7c0-0.4-0.1-0.7-0.4-1C84.3,51.5,84,51.4,83.6,51.4z"/>
	<path class="st0" d="M5.4,45.1c0.8,0,1.4-0.6,1.4-1.4c0-0.6-0.2-1-0.7-1.2c-1-0.4-0.8-0.3-1.8-0.6c-1-0.4-2-1.1-2.6-2
		c-0.4-0.5-0.6-1.2-0.6-2c0-1.2,0.4-2.2,1.3-3c0.8-0.8,1.8-1.3,3-1.3c1.2,0,2.2,0.4,3,1.3c0.8,0.8,1.3,1.8,1.3,3H6.8
		c0-0.8-0.6-1.4-1.4-1.4S4,37.2,4,38c0,0.5,0.2,0.9,0.6,1.2c0.8,0.5,0.7,0.4,1.7,0.7c1.1,0.3,2.1,1,2.7,1.8c0.4,0.5,0.6,1.2,0.6,2
		c0,1.2-0.4,2.2-1.3,3c-0.8,0.8-1.8,1.3-3,1.3c-1.2,0-2.2-0.4-3-1.3c-0.8-0.8-1.3-1.8-1.3-3H4C4,44.5,4.6,45.1,5.4,45.1L5.4,45.1z"
		/>
	<path class="st0" d="M17.7,33.8c2,0,3.6,0.7,5,2.1s2.1,3.1,2.1,5c0,1.4-0.4,2.7-1.2,3.9l1.2,1.2l-2,2l-1.2-1.2
		c-1.2,0.8-2.5,1.2-3.9,1.2c-2,0-3.6-0.7-5-2.1c-1.4-1.4-2.1-3.1-2.1-5c0-2,0.7-3.6,2.1-5C14.1,34.4,15.8,33.8,17.7,33.8L17.7,33.8z
		 M19.7,40.9l1.8,1.8c0.3-0.6,0.4-1.2,0.4-1.8c0-1.2-0.4-2.2-1.3-3c-0.8-0.8-1.8-1.3-3-1.3c-1.2,0-2.2,0.4-3,1.3
		c-0.8,0.8-1.2,1.8-1.2,3c0,1.2,0.4,2.2,1.2,3c0.8,0.8,1.8,1.2,3,1.2c0.6,0,1.3-0.1,1.8-0.4l-1.9-1.8L19.7,40.9z"/>
	<path class="st0" d="M37.2,33.8v5.7v2.8c0,1.6-0.6,2.9-1.7,4c-1.1,1.1-2.5,1.7-4,1.7c-1.6,0-2.9-0.6-4-1.7c-1.1-1.1-1.7-2.4-1.7-4
		v-2.8v-5.7h2.8v5.7V42v0.3c0,0.8,0.3,1.4,0.8,2c0.6,0.6,1.2,0.8,2,0.8s1.4-0.3,2-0.8s0.8-1.2,0.8-2V42v-2.5v-5.7L37.2,33.8
		L37.2,33.8z"/>
	<path class="st0" d="M41.1,45.7c-0.3,0.7-0.6,1.4-1,2.1h-3l6.4-14.3l6.4,14.3h-3c-0.3-0.7-0.6-1.4-0.9-2.1L41.1,45.7L41.1,45.7z
		 M44.8,43.3l-1.2-2.9l-1.2,2.9H44.8z"/>
	<path class="st0" d="M54.5,33.9c1.9,0,3.8,0.7,5.1,2.1c2.5,2.5,2.5,7.4,0,9.9c-1.4,1.4-3.2,2.1-5.1,2.1H51v-14L54.5,33.9L54.5,33.9
		z M54.5,45.1c1.2,0,2.2-0.3,3-1.1c0.8-0.8,1.1-1.9,1.1-3.1c0-1.2-0.3-2.2-1.2-3.1c-0.8-0.8-1.9-1.2-3.1-1.2h-0.7v8.4H54.5
		L54.5,45.1z"/>
	<path class="st0" d="M62.5,33.8h4.6c1.3,0,2.7,0.5,3.7,1.4c1,1,1.4,1.9,1.4,3.2v0.4c0,1.1-0.3,1.8-0.9,2.7c-0.6,0.8-1.1,1.1-2,1.4
		l3.2,4.9H69l-3.6-5.5v5.5h-2.8L62.5,33.8z M67.4,40.6c0.6,0,0.9-0.2,1.3-0.6c0.4-0.4,0.6-0.9,0.6-1.5s-0.1-1-0.6-1.4
		c-0.4-0.4-1.1-0.6-1.7-0.6h-1.6v4H67.4z"/>
	<path class="st0" d="M77.3,45.7c-0.3,0.7-0.6,1.4-1,2.1h-3l6.4-14.3l6.4,14.3h-3c-0.3-0.7-0.6-1.4-0.9-2.1L77.3,45.7L77.3,45.7z
		 M81,43.3l-1.2-2.9l-1.2,2.9H81z"/>
	<path class="st0" d="M39.3,18.9h6.1c0.4,0,0.8-0.2,1.1-0.5c0.3-0.3,0.5-0.7,0.5-1.1v-6.1c0-0.4-0.2-0.8-0.5-1.1
		c-0.3-0.3-0.7-0.5-1.1-0.5h-6.1c-0.4,0-0.8,0.2-1.1,0.5c-0.3,0.3-0.5,0.7-0.5,1.1v6.1c0,0.4,0.2,0.8,0.5,1.1
		C38.5,18.8,38.9,18.9,39.3,18.9 M45.4,19.9h-6.1c-0.7,0-1.3-0.3-1.8-0.8c-0.5-0.5-0.8-1.1-0.8-1.8v-6.1c0-0.7,0.3-1.3,0.8-1.8
		C38,9,38.6,8.7,39.3,8.7h6.1c0.7,0,1.3,0.3,1.8,0.7s0.7,1.1,0.7,1.8v6.1c0,0.7-0.3,1.3-0.7,1.8C46.7,19.6,46.1,19.9,45.4,19.9z"/>
	<path class="st0" d="M31.3,26.8h8.3c0.4,0,0.8-0.2,1.1-0.4c0.3-0.3,0.4-0.7,0.4-1.1V17c0-0.4-0.2-0.8-0.4-1.1
		c-0.3-0.3-0.7-0.4-1.1-0.4h-8.3c-0.4,0-0.8,0.2-1.1,0.4c-0.3,0.3-0.4,0.7-0.4,1.1v8.3c0,0.4,0.2,0.8,0.4,1.1
		C30.5,26.7,30.9,26.8,31.3,26.8 M39.6,27.9h-8.3c-0.7,0-1.4-0.3-1.9-0.8c-0.5-0.5-0.8-1.1-0.8-1.9V17c0-0.7,0.3-1.4,0.8-1.9
		c0.5-0.5,1.1-0.8,1.9-0.8h8.3c0.7,0,1.4,0.3,1.9,0.8c0.5,0.5,0.8,1.1,0.8,1.9v8.3c0,0.7-0.3,1.4-0.8,1.9
		C41,27.6,40.3,27.9,39.6,27.9z"/>
</g>
</svg>
